// Jest Snapshot v1, https://goo.gl/fbAQLP

exports[`<Button /> snapshot 1`] = `
<button
  className="btn"
  disabled={false}
  type="button"
/>
`;

exports[`<Button /> snapshot with full props 1`] = `
<button
  className="button"
  disabled={true}
  type="submit"
>
  Кнопка
</button>
`;
